OR_inf/tests/ifc.vcd
$date
	Wed Oct  2 15:53:48 2024
$end
$version
	Icarus Verilog
$end
$timescale
	1ps
$end
$scope module ifc_test $end
$var wire 1 ! RST_N $end
$var wire 1 " a_data $end
$var wire 1 # a_en $end
$var wire 1 $ b_data $end
$var wire 1 % b_en $end
$var wire 1 & y_en $end
$var wire 1 ' y_rdy $end
$var wire 1 ( y_data $end
$var wire 1 ) b_rdy $end
$var wire 1 * a_rdy $end
$var reg 1 + CLK $end
$scope module dut $end
$var wire 1 + CLK $end
$var wire 1 ! RST_N $end
$var wire 1 " a_data $end
$var wire 1 # a_en $end
$var wire 1 , \a_ff$CLR $end
$var wire 1 - \a_ff$DEQ $end
$var wire 1 . \a_ff$D_IN $end
$var wire 1 / \a_ff$ENQ $end
$var wire 1 * a_rdy $end
$var wire 1 $ b_data $end
$var wire 1 % b_en $end
$var wire 1 0 \b_ff$CLR $end
$var wire 1 1 \b_ff$DEQ $end
$var wire 1 2 \b_ff$D_IN $end
$var wire 1 3 \b_ff$ENQ $end
$var wire 1 ) b_rdy $end
$var wire 1 ( y_data $end
$var wire 1 & y_en $end
$var wire 1 4 \y_ff$CLR $end
$var wire 1 5 \y_ff$DEQ $end
$var wire 1 6 \y_ff$D_IN $end
$var wire 1 7 \y_ff$ENQ $end
$var wire 1 ' y_rdy $end
$var wire 1 8 \y_ff$FULL_N $end
$var wire 1 9 \y_ff$EMPTY_N $end
$var wire 1 : \y_ff$D_OUT $end
$var wire 1 ; \b_ff$FULL_N $end
$var wire 1 < \b_ff$EMPTY_N $end
$var wire 1 = \b_ff$D_OUT $end
$var wire 1 > \a_ff$FULL_N $end
$var wire 1 ? \a_ff$EMPTY_N $end
$var wire 1 @ \a_ff$D_OUT $end
$scope module a_ff $end
$var wire 1 + CLK $end
$var wire 1 , CLR $end
$var wire 1 - DEQ $end
$var wire 1 . D_IN $end
$var wire 1 ? EMPTY_N $end
$var wire 1 / ENQ $end
$var wire 1 > FULL_N $end
$var wire 1 ! RST $end
$var wire 1 A d0d1 $end
$var wire 1 B d0di $end
$var wire 1 C d0h $end
$var wire 1 D d1di $end
$var wire 1 @ D_OUT $end
$var parameter 1 E guarded $end
$var parameter 32 F width $end
$var reg 1 @ data0_reg $end
$var reg 1 G data1_reg $end
$var reg 1 H empty_reg $end
$var reg 1 I full_reg $end
$scope begin error_checks $end
$var reg 1 J deqerror $end
$var reg 1 K enqerror $end
$upscope $end
$upscope $end
$scope module b_ff $end
$var wire 1 + CLK $end
$var wire 1 0 CLR $end
$var wire 1 1 DEQ $end
$var wire 1 2 D_IN $end
$var wire 1 < EMPTY_N $end
$var wire 1 3 ENQ $end
$var wire 1 ! RST $end
$var wire 1 ; FULL_N $end
$var parameter 1 L guarded $end
$var parameter 32 M width $end
$var reg 1 = D_OUT $end
$var reg 1 N empty_reg $end
$scope begin error_checks $end
$var reg 1 O deqerror $end
$var reg 1 P enqerror $end
$upscope $end
$upscope $end
$scope module y_ff $end
$var wire 1 + CLK $end
$var wire 1 4 CLR $end
$var wire 1 5 DEQ $end
$var wire 1 6 D_IN $end
$var wire 1 9 EMPTY_N $end
$var wire 1 7 ENQ $end
$var wire 1 8 FULL_N $end
$var wire 1 ! RST $end
$var wire 1 Q d0d1 $end
$var wire 1 R d0di $end
$var wire 1 S d0h $end
$var wire 1 T d1di $end
$var wire 1 : D_OUT $end
$var parameter 1 U guarded $end
$var parameter 32 V width $end
$var reg 1 : data0_reg $end
$var reg 1 W data1_reg $end
$var reg 1 X empty_reg $end
$var reg 1 Y full_reg $end
$scope begin error_checks $end
$var reg 1 Z deqerror $end
$var reg 1 [ enqerror $end
$upscope $end
$upscope $end
$upscope $end
$upscope $end
$enddefinitions $end
$comment Show the parameter values. $end
$dumpall
b1 V
1U
b1 M
1L
b1 F
1E
$end
#0
$dumpvars
x[
xZ
1Y
0X
0W
0T
1S
0R
0Q
xP
xO
0N
xK
xJ
1I
0H
0G
0D
xC
xB
0A
0@
0?
1>
0=
0<
1;
0:
09
18
07
06
z5
04
z3
z2
01
00
z/
z.
0-
0,
0+
1*
1)
0(
0'
z&
z%
z$
z#
z"
1!
$end
#1000
0!
#5000
0B
1C
05
0&
03
0%
0/
0#
1!
x6
x@
0[
0Z
0P
0O
0K
0J
1+
#10000
0+
#15000
1+
#20000
0+
#25000
1+
#30000
0+
#35000
1+
#40000
0+
#45000
1+
#50000
0+
#55000
1+
#60000
0+
#65000
1+
#70000
0+
#75000
1+
#80000
0+
#85000
1+
#90000
0+
#95000
0C
1B
0.
0"
1/
1#
1+
#100000
0+
#105000
0/
0#
1C
0B
0D
06
1?
1H
0@
1+
#110000
0+
#115000
1+
#120000
0+
#125000
1+
#130000
0+
#135000
1+
#140000
0+
#145000
1+
#150000
0+
#155000
1+
#160000
0+
#165000
1+
#170000
0+
#175000
1+
#180000
0+
#185000
1+
#190000
0+
#195000
1+
#200000
0+
#205000
1D
1/
1#
02
0$
13
1%
1+
#210000
0+
#215000
0D
0/
0#
03
0%
0S
0C
1R
1A
17
11
1-
0)
0;
1<
1N
0*
0>
0I
1+
#220000
0+
#225000
15
1&
1S
1C
0R
0A
07
01
0-
0T
1*
1>
1I
1)
1;
0<
0N
1'
19
1X
1+
#230000
0+
#235000
0'
09
0X
1+
#237000
05
0&
#240000
0+
#245000
1+
#250000
0+
#255000
1D
1.
1"
1/
1#
1+
#260000
0+
#265000
0D
0/
0#
0*
0>
0I
1G
1+
#270000
0+
#275000
1+
#280000
0+
#285000
1+
#290000
0+
#295000
1+
#300000
0+
#305000
1+
#310000
0+
#315000
1+
#320000
0+
#325000
1+
#330000
0+
#335000
1+
#340000
0+
#345000
1+
#350000
0+
#355000
1+
#360000
0+
#365000
1+
#370000
0+
#375000
1+
#380000
0+
#385000
1+
#390000
0+
#395000
1+
#400000
0+
#405000
1+
#410000
0+
#415000
12
1$
13
1%
1+
#420000
0+
#425000
03
0%
0S
0C
1R
1A
17
11
1-
16
0)
0;
1<
1N
1=
1+
#430000
0+
#435000
1D
15
1&
02
0$
13
1%
1/
1#
1S
0R
1C
07
01
0-
0A
1(
1:
1'
19
1X
1)
1;
0<
0N
1@
1*
1>
1I
1+
#440000
0+
#445000
0D
03
0%
0/
0#
0C
1R
0S
1A
17
11
1-
0*
0>
0I
0)
0;
1<
1N
0=
0'
09
0X
1+
#447000
05
0&
#450000
0+
#455000
15
1&
1S
0R
1C
07
01
0-
0A
1'
19
1X
1)
1;
0<
0N
1*
1>
1I
1+
#460000
0+
#465000
0'
09
0X
1+
#467000
05
0&
#470000
0+
#475000
12
1$
13
1%
1+
#480000
0+
#485000
03
0%
0S
1R
17
11
1-
0)
0;
1<
1N
1=
1+
#490000
0+
#495000
15
1&
1S
0R
07
01
0-
1'
19
1X
1)
1;
0<
0N
0?
0H
1+
